<?xml version="1.0" encoding="UTF-8"?>
<svg width="22px" height="20px" viewBox="0 0 22 20" version="1.1" xmlns="http://www.w3.org/2000/svg" xmlns:xlink="http://www.w3.org/1999/xlink">
    <!-- Generator: Sketch 44.1 (41455) - http://www.bohemiancoding.com/sketch -->
    <title>Path</title>
    <desc>Created with Sketch.</desc>
    <defs></defs>
    <g id="1920,1280,1024" stroke="none" stroke-width="1" fill="none" fill-rule="evenodd">
        <g id="specification" transform="translate(-683.000000, -4057.000000)" stroke="#000000" fill="#000000">
            <path d="M687.924805,4058.14583 C686.458456,4058.51032 685.164082,4059.58551 684.624135,4060.55019 C683.413133,4062.74731 684.039699,4066.12805 685.853558,4067.84345 L693.84239,4075.68215 L694.170709,4076.00429 L702.494072,4067.83747 C704.300068,4066.12729 704.925743,4062.74777 703.716682,4060.55296 C703.185181,4059.60509 701.821149,4058.51049 700.326218,4058.14537 C698.306181,4057.65201 696.19683,4058.39789 694.16158,4060.63595 C692.03581,4058.39693 689.912394,4057.65178 687.924805,4058.14583 Z" id="Path"></path>
        </g>
    </g>
</svg>