<?xml version="1.0" encoding="UTF-8"?>
<svg width="21px" height="20px" viewBox="0 0 21 20" version="1.1" xmlns="http://www.w3.org/2000/svg" xmlns:xlink="http://www.w3.org/1999/xlink">
    <!-- Generator: Sketch 44.1 (41455) - http://www.bohemiancoding.com/sketch -->
    <title>material</title>
    <desc>Created with Sketch.</desc>
    <defs></defs>
    <g id="1920,1280,1024" stroke="none" stroke-width="1" fill="none" fill-rule="evenodd">
        <g id="card2-1920" transform="translate(-224.000000, -997.000000)" stroke="#000000" stroke-width="0.7">
            <g id="material" transform="translate(225.000000, 998.000000)">
                <path d="M18.7099991,4.82367607 L16.4539353,2.04574222 C15.9680789,2.23853883 15.4319268,2.34720961 14.8674079,2.34720961 C13.1619814,2.34720961 11.7102464,1.3723397 11.1268163,0 L9.35499954,0 L9.35499954,0 L7.58298156,0 C6.99975267,1.3723397 5.54801769,2.34720961 3.84218884,2.34720961 C3.27766995,2.34720961 2.74192019,2.23853883 2.2556614,2.04574222 L0,4.82367607 C1.66398282,5.86307544 2.81293771,8.07172485 2.81293771,10.6313274 C2.81293771,12.5955171 2.13555527,14.3526582 1.06888414,15.5345766 L4.1839984,17.5836839 C4.73765342,17.1080266 5.58221876,16.8031941 6.52898495,16.8031941 C7.82399854,16.8031941 8.92527311,17.3730724 9.35499954,18.1725647 C9.78452479,17.3730724 10.8860005,16.8031941 12.180813,16.8031941 C13.1279815,16.8031941 13.9719433,17.1080266 14.5260007,17.5836839 L17.6411149,15.5345766 C16.5742426,14.3526582 15.8968602,12.5955171 15.8968602,10.6313274 C15.8970614,8.07152691 17.0460163,5.86287749 18.7099991,4.82367607 Z" id="Shape"></path>
            </g>
        </g>
    </g>
</svg>