<?xml version="1.0" encoding="UTF-8"?>
<svg width="22px" height="21px" viewBox="0 0 22 21" version="1.1" xmlns="http://www.w3.org/2000/svg" xmlns:xlink="http://www.w3.org/1999/xlink">
    <!-- Generator: Sketch 44.1 (41455) - http://www.bohemiancoding.com/sketch -->
    <title>Group 6</title>
    <desc>Created with Sketch.</desc>
    <defs></defs>
    <g id="1920,1280,1024" stroke="none" stroke-width="1" fill="none" fill-rule="evenodd" stroke-linecap="square">
        <g id="menu2-480" transform="translate(-376.000000, -19.000000)" stroke="#000000">
            <g id="Group-6" transform="translate(376.000000, 19.000000)">
                <path d="M0.5,10.5 L20.5249844,10.5" id="Line"></path>
                <polyline id="Line" points="11.6281979 20.494522 0 10.4918145 11.4906666 0.850000381"></polyline>
            </g>
        </g>
    </g>
</svg>