<?xml version="1.0" encoding="UTF-8" standalone="no"?>
<svg width="19px" height="28px" viewBox="0 0 19 28" version="1.1" xmlns="http://www.w3.org/2000/svg" xmlns:xlink="http://www.w3.org/1999/xlink">
    <!-- Generator: Sketch 45.1 (43504) - http://www.bohemiancoding.com/sketch -->
    <title>home-icon</title>
    <desc>Created with Sketch.</desc>
    <defs></defs>
    <g id="1920,1280,1024" stroke="none" stroke-width="1" fill="none" fill-rule="evenodd">
        <g id="home-menu-1920" transform="translate(-1045.000000, -10.000000)">
            <g id="home-icon" transform="translate(1045.000000, 10.000000)">
                <path d="M0.691915979,27.2652157 L18.3104192,27.2992875 L18.3104192,16.5361575 L9.4132051,11.2601076 L6.27736986,13.1642497 L6.25026045,9.60236849 L2.83178126,9.62111484 L2.86601179,13.1028481 L2.86601179,15.5603131 L0.727668418,16.5597732 L0.691915979,27.2652157 Z M9.40904472,10.4474887 L19,16.1349272 L19,28 L0,27.9632566 L0.0395813578,16.1113114 L2.1764327,15.1125487 L2.17644813,13.1063363 L2.13532614,8.92554615 L6.93451022,8.89922825 L6.95762334,11.9360409 L9.40904472,10.4474887 Z M3.33151923,7.51612111 C3.15142397,7.57885797 2.95528206,7.48164601 2.89342402,7.29899212 C2.83156598,7.11633824 2.9274162,6.91740974 3.10751146,6.85467288 C3.16421104,6.83492137 3.26883176,6.79467127 3.40498787,6.73568602 C3.63258438,6.63708716 3.85997061,6.52314186 4.07023759,6.39636224 C4.62921194,6.05933094 4.94122671,5.70514676 4.92816953,5.40560296 C4.90381942,4.8744949 4.75799742,4.76973916 4.08002601,4.63876595 C3.10967636,4.45130814 2.693319,4.14013275 2.67006208,3.1532659 C2.65494619,2.51157236 3.13938751,2.0558341 4.30873107,1.28810271 C5.35516375,0.601068344 5.60164742,0.413440648 5.63390347,0.271322461 C5.67661986,0.0831165914 5.86168213,-0.0343339613 6.04725161,0.00898930901 C6.23282109,0.0523125793 6.34862639,0.240004032 6.30590999,0.428209901 C6.20760999,0.861313775 6.08138267,0.957400229 4.68346638,1.87520082 C3.76168522,2.48039535 3.35304505,2.86482367 3.3594461,3.13655829 C3.37293532,3.70895 3.51957059,3.81854165 4.21104077,3.95212389 C5.16344079,4.1361123 5.57380806,4.43091232 5.6170417,5.37391474 C5.64493971,6.01387669 5.18147169,6.53998331 4.42262388,6.9975275 C4.18361538,7.1416367 3.92963502,7.26890856 3.67586494,7.37884627 C3.5232011,7.44498296 3.40318408,7.4911564 3.33151923,7.51612111 Z" id="Combined-Shape" fill="#221E1F" fill-rule="nonzero"></path>
                <rect id="Rectangle-13" stroke="#221E1F" stroke-width="0.7" x="6.35" y="19.35" width="6.3" height="8.3"></rect>
            </g>
        </g>
    </g>
</svg>