<?xml version="1.0" encoding="UTF-8"?>
<svg width="9px" height="7px" viewBox="0 0 9 7" version="1.1" xmlns="http://www.w3.org/2000/svg" xmlns:xlink="http://www.w3.org/1999/xlink">
    <!-- Generator: Sketch 44.1 (41455) - http://www.bohemiancoding.com/sketch -->
    <title>Group 10</title>
    <desc>Created with Sketch.</desc>
    <defs></defs>
    <g id="1920,1280,1024" stroke="none" stroke-width="1" fill="none" fill-rule="evenodd" stroke-linecap="square">
        <g id="specification" transform="translate(-690.000000, -1448.000000)" stroke="#000000">
            <g id="Group-10" transform="translate(691.000000, 1448.000000)">
                <path d="M0.35,0.35 L6.80368112,6.80368112" id="Line"></path>
                <path d="M0.35,0.35 L6.80368112,6.80368112" id="Line" transform="translate(3.500000, 3.500000) scale(-1, 1) translate(-3.500000, -3.500000) "></path>
            </g>
        </g>
    </g>
</svg>